\relax 
\citation{Marcuse1997}
\citation{Kaminow1981}
\citation{Agrawal2013}
\citation{Marcuse1997}
\citation{Hasegawa1973}
\citation{Kaminow1981}
\citation{Agrawal2013}
\citation{Manakov1974}
\@writefile{toc}{\contentsline {section}{\tocsection {}{1}{Introduction}}{1}{}\protected@file@percent }
\@writefile{toc}{\contentsline {section}{\tocsection {}{2}{Schrödinger \& Manakov equation derivations}}{1}{}\protected@file@percent }
\@writefile{toc}{\contentsline {subsection}{\tocsubsection {}{2.1}{Deterministic Manakov equation}}{1}{}\protected@file@percent }
\citation{Bouard2010}
\citation{Agrawal2001}
\citation{Agrawal2013}
\citation{Bouard2010}
\citation{Damask2005}
\citation{Galtarossa2005}
\citation{Menyuk1987}
\citation{Kodama1985}
\citation{Menyuk1999}
\citation{Agrawal2013}
\citation{MR2132573}
\citation{Aydin2005}
\bibstyle{plain}
\bibdata{schrDer}
\bibcite{Agrawal2001}{1}
\bibcite{Agrawal2013}{2}
\bibcite{Aydin2005}{3}
\bibcite{Damask2005}{4}
\bibcite{Bouard2010}{5}
\@writefile{toc}{\contentsline {subsection}{\tocsubsection {}{2.2}{Stochastic Schrödinger equation}}{2}{}\protected@file@percent }
\@writefile{toc}{\contentsline {subsection}{\tocsubsection {}{2.3}{Stochastic Manakov equation}}{2}{}\protected@file@percent }
\@writefile{toc}{\contentsline {section}{\tocsection {}{3}{Hamiltonian of Schrödinger equations}}{2}{}\protected@file@percent }
\@writefile{toc}{\contentsline {section}{\tocsection {}{}{References}}{2}{}\protected@file@percent }
\bibcite{Galtarossa2005}{6}
\bibcite{Hasegawa1973}{7}
\bibcite{Kaminow1981}{8}
\bibcite{Kodama1985}{9}
\bibcite{MR2132573}{10}
\bibcite{Manakov1974}{11}
\bibcite{Marcuse1997}{12}
\bibcite{Menyuk1987}{13}
\bibcite{Menyuk1999}{14}
\newlabel{tocindent-1}{0pt}
\newlabel{tocindent0}{13.9917pt}
\newlabel{tocindent1}{19.4667pt}
\newlabel{tocindent2}{32.18062pt}
\newlabel{tocindent3}{0pt}
\gdef \@abspage@last{3}
